{
  "title": "C.V. Verhaad Jagroep",
  "job_title": "Fullstack Developer",
  "organization": "J-GROUP WORKS",
  "versie": "20211201",
  "job_reference": "referentie",
  "paginas": {
    "voorpagina": {
      "personalia": {
        "toolbar_icon": "settings",
        "icon_color": "#ff0000",
        "toolbar_title": "page1.personalia",
        "items": [
          {
            "mat_icon": "house",
            "title": "V. Jagroep"
          },
          {
            "mat_icon": "campaign",
            "title": "Verhaad"
          },
          {
            "mat_icon": "location_on",
            "title": "Den Haag"
          },
          {
            "mat_icon": "local_cafe",
            "title": "etcetera"
          }
        ]

      },
      "highlights": {
        "toolbar_icon": "material icon",
        "icon_color": "kleur van icoontje",
        "toolbar_title": "page1.highlights",
        "items": [ "Webdevelopment", "C#", "Angular", "Scrum", "Etcetera..." ]
      },
      "talen": {
        "toolbar_icon": "material icon",
        "icon_color": "kleur van icoontje",
        "toolbar_title": "page1.talen",
        "items": [
          {
            "taal": "Nederlands",
            "mat_icon": "flag",
            "niveau": 100
          },
          {
            "taal": "Engels",
            "mat_icon": "flag",
            "niveau": 90
          },
          {
            "taal": "Duits",
            "mat_icon": "flag",
            "niveau": 50
          },
          {
            "taal": "Frans",
            "mat_icon": "flag",
            "niveau": 40
          }
        ]
      },
      "info": {
        "toolbar_icon": "material icon",
        "icon_color": "yellow",
        "toolbar_title": "page1.info",
        "icon": "business",
        "info_tekst": "Hier komt een hele kleine tekst, iets als: dit material c.v. is geheel ontworpen en vervaardigd door J-GROUP WORKS"
      },
      "pitcher": {
        "toolbar_icon": "material icon",
        "icon_color": "kleur van icoontje",
        "toolbar_title": "page1.pitcher",
        "pitcher_tekst": "Hier komt een stuk tekst Lorum ipsum 2 a 3 alinea's'"
      },
      "opleidingen": {
        "toolbar_icon": "material icon",
        "icon_color": "kleur van icoontje",
        "toolbar_title": "page1.opleidingen",
        "items": [
          {
            "title": "VWO Naam School",
            "omschrijving": "Voortgezet onderwijs oid",
            "periode": "1998-2002",
            "diploma": true,
            "image": "https://images.pexels.com/photos/7017010/pexels-photo-7017010.jpeg?auto=compress&cs=tinysrgb&dpr=1&w=500"
          },
          {
            "title": "HBO Haagse Hogeschool",
            "omschrijving": "Afstudeerrichting Informatica & Informatiekunde",
            "periode": "2005-2010",
            "diploma": true,
            "image": "https://images.pexels.com/photos/7017010/pexels-photo-7017010.jpeg?auto=compress&cs=tinysrgb&dpr=1&w=500"
          }
        ]
      },
      "werkgevers": {
        "toolbar_icon": "material icon",
        "icon_color": "kleur van icoontje",
        "toolbar_title": "page1.werkgevers",
        "items": [
          {
            "title": "Politie ICT",
            "omschrijving": "Fullstack Developer",
            "periode": "2017-2021",
            "image": "https://images.pexels.com/photos/684385/pexels-photo-684385.jpeg?auto=compress&cs=tinysrgb&dpr=2&h=750&w=1260"
          },
          {
            "title": "Ministerie van Buitenlandse Zaken",
            "omschrijving": "SharePoint Consultant",
            "periode": "2016-2017 (gewon tekst dus)",
            "image": "https://images.pexels.com/photos/684385/pexels-photo-684385.jpeg?auto=compress&cs=tinysrgb&dpr=2&h=750&w=1260"
          }
        ]
      },
      "branche_ervaring": {
        "toolbar_icon": "material icon",
        "icon_color": "kleur van icoontje",
        "toolbar_title": "page1.branche_ervaring",
        "items": [
          {
            "title": "Bankwezen",
            "branches": [ "ABN AMRO", "ING", "Rabobank" ]
          },
          {
            "title": "Telecom",
            "branches": [ "T-Mobile", "KPN" ]
          },
          {
            "title": "Overheid",
            "branches": [ "Politie", "IND", "BuZa" ]
          },
          {
            "title": "Industrie",
            "branches": [ "DHL", "Havenbedrijf", "Mercedes-Benz" ]
          }
        ]
      }
    },
    "skillspagina": {
      "info": {
        "toolbar_icon": "material icon",
        "icon_color": "kleur van icoontje",
        "toolbar_title": "Skill matrix",
        "info": "Hier komt een verklarende tekst. Lorum ipsum 1 paragraaf"
      },
      "onderwerpen": [
        {
          "toolbar_title": "Webdevelopment",
          "items": [
            {
              "title": "Visual Basic",
              "years_experience": "2"
            },
            {
              "title": "C#",
              "years_experience": "4"
            },
            {
              "title": "HTML-CSS",
              "years_experience": "5"
            },
            {
              "title": "Angular",
              "years_experience": "7"
            }
          ]
        },
        {
          "toolbar_title": "Softskills",
          "items": [
            {
              "title": "SDM",
              "years_experience": "6"
            },
            {
              "title": "Scrum/Agile",
              "years_experience": "2"
            },
            {
              "title": "Informatie-analyse",
              "years_experience": "10"
            }
          ]
        }
      ]
    },
    "trainingenpagina": {
      "credentials": {
        "toolbar_icon": "material icon",
        "icon_color": "kleur van icoontje",
        "toolbar_title": "page3.earned_credentials",
        "items": [
          {
            "title": "MCPD",
            "omschrijving": "Microsoft Certified Professional Developer",
            "periode": "2017",
            "image": "https://images.pexels.com/photos/6567561/pexels-photo-6567561.jpeg?auto=compress&cs=tinysrgb&dpr=2&h=750&w=1260"
          },
          {
            "title": "PSM 1",
            "omschrijving": "Professional Scrum Master 1",
            "periode": "2014",
            "image": "https://images.pexels.com/photos/6567561/pexels-photo-6567561.jpeg?auto=compress&cs=tinysrgb&dpr=2&h=750&w=1260"
          }
        ]
      },
      "cursussen": {
        "toolbar_icon": "material icon",
        "icon_color": "kleur van icoontje",
        "toolbar_title": "page3.trainingen_cursussen",
        "items": [
          {
            "title": "U2U Brussel",
            "omschrijving": "Developing cybersecurity",
            "periode": "2021",
            "image": "https://images.pexels.com/photos/6238120/pexels-photo-6238120.jpeg?auto=compress&cs=tinysrgb&dpr=2&h=750&w=1260"
          },
          {
            "title": "U2U Brussel",
            "omschrijving": "Developing with .net Core",
            "periode": "2021",
            "image": "https://images.pexels.com/photos/6238120/pexels-photo-6238120.jpeg?auto=compress&cs=tinysrgb&dpr=2&h=750&w=1260"
          },
          {
            "title": "Computrain",
            "omschrijving": "Developing Aure solutions in the loud",
            "periode": "2012",
            "image": "https://images.pexels.com/photos/6238120/pexels-photo-6238120.jpeg?auto=compress&cs=tinysrgb&dpr=2&h=750&w=1260"
          },
          {
            "title": "Class A",
            "omschrijving": "C# for dummies",
            "periode": "2017",
            "image": "https://images.pexels.com/photos/6238120/pexels-photo-6238120.jpeg?auto=compress&cs=tinysrgb&dpr=2&h=750&w=1260"
          }
        ]
      }
    },
    "werkervaring": {
      "pagina_1": {
        "toolbar_icon": "material icon",
        "icon_color": "kleur van icoontje",
        "toolbar_title": "page4.werkervaring",
        "items": [
          {
            "title": "Bouwen BOS 2.0 Mobile App",
            "organisatie": "Politie ICT",
            "rol": "Fullstack Developer",
            "omschrijving": "Verhaad heeft de Cordova app omgebouwd naar een full hibryde native app blababla Lorum ipsum etc",
            "periode": "2017.10 - heden",
            "image": "https://images.pexels.com/photos/430205/pexels-photo-430205.jpeg?auto=compress&cs=tinysrgb&dpr=2&h=750&w=1260",
            "project_kenmerken": [ "C#", "JAVA", "Android", "Angular", "Visual Basic", "Mobile Development", "Netscalar" ]
          },
          {
            "title": "24/7 PLaza",
            "organisatie": "Ministerie van Buitenlandse Zaken",
            "rol": "SharePoint Consultant Developer",
            "omschrijving": "Verhaad heeft een geweldige portal gemaakt",
            "periode": "2016.01 - 2017.02",
            "image": "https://images.pexels.com/photos/430205/pexels-photo-430205.jpeg?auto=compress&cs=tinysrgb&dpr=2&h=750&w=1260",
            "project_kenmerken": [ "C#", "Visual Studio", "HTML/CSS", "Netscalar" ]
          }
        ]
      },
      "pagina_2": ""
    }
  }
}
